teste_banco.vcd
$date
  Wed Apr 29 23:09:42 2026
$end
$version
  GHDL v0
$end
$timescale
  1 fs
$end
$scope module standard $end
$upscope $end
$scope module std_logic_1164 $end
$upscope $end
$scope module numeric_std $end
$upscope $end
$scope module banco_regs_tb $end
$var reg 1 ! clk_tb $end
$var reg 1 " rst_tb $end
$var reg 1 # wr_en_tb $end
$var reg 4 $ write_sel_tb[3:0] $end
$var reg 4 % read_sel_tb[3:0] $end
$var reg 16 & data_in_tb[15:0] $end
$var reg 16 ' data_out_tb[15:0] $end
$var reg 1 ( sim_done $end
$scope module uut $end
$var reg 1 ) clk $end
$var reg 1 * rst $end
$var reg 1 + wr_en $end
$var reg 4 , write_sel[3:0] $end
$var reg 4 - read_sel[3:0] $end
$var reg 16 . data_in[15:0] $end
$var reg 16 / data_out[15:0] $end
$var reg 1 0 we0 $end
$var reg 1 1 we1 $end
$var reg 1 2 we2 $end
$var reg 1 3 we3 $end
$var reg 1 4 we4 $end
$var reg 1 5 we5 $end
$var reg 1 6 we6 $end
$var reg 1 7 we7 $end
$var reg 1 8 we8 $end
$var reg 1 9 we9 $end
$var reg 16 : q0[15:0] $end
$var reg 16 ; q1[15:0] $end
$var reg 16 < q2[15:0] $end
$var reg 16 = q3[15:0] $end
$var reg 16 > q4[15:0] $end
$var reg 16 ? q5[15:0] $end
$var reg 16 @ q6[15:0] $end
$var reg 16 A q7[15:0] $end
$var reg 16 B q8[15:0] $end
$var reg 16 C q9[15:0] $end
$scope module reg0 $end
$var reg 1 D clk $end
$var reg 1 E rst $end
$var reg 1 F wr_en $end
$var reg 16 G data_in[15:0] $end
$var reg 16 H data_out[15:0] $end
$var reg 16 I registro[15:0] $end
$upscope $end
$scope module reg1 $end
$var reg 1 J clk $end
$var reg 1 K rst $end
$var reg 1 L wr_en $end
$var reg 16 M data_in[15:0] $end
$var reg 16 N data_out[15:0] $end
$var reg 16 O registro[15:0] $end
$upscope $end
$scope module reg2 $end
$var reg 1 P clk $end
$var reg 1 Q rst $end
$var reg 1 R wr_en $end
$var reg 16 S data_in[15:0] $end
$var reg 16 T data_out[15:0] $end
$var reg 16 U registro[15:0] $end
$upscope $end
$scope module reg3 $end
$var reg 1 V clk $end
$var reg 1 W rst $end
$var reg 1 X wr_en $end
$var reg 16 Y data_in[15:0] $end
$var reg 16 Z data_out[15:0] $end
$var reg 16 [ registro[15:0] $end
$upscope $end
$scope module reg4 $end
$var reg 1 \ clk $end
$var reg 1 ] rst $end
$var reg 1 ^ wr_en $end
$var reg 16 _ data_in[15:0] $end
$var reg 16 ` data_out[15:0] $end
$var reg 16 a registro[15:0] $end
$upscope $end
$scope module reg5 $end
$var reg 1 b clk $end
$var reg 1 c rst $end
$var reg 1 d wr_en $end
$var reg 16 e data_in[15:0] $end
$var reg 16 f data_out[15:0] $end
$var reg 16 g registro[15:0] $end
$upscope $end
$scope module reg6 $end
$var reg 1 h clk $end
$var reg 1 i rst $end
$var reg 1 j wr_en $end
$var reg 16 k data_in[15:0] $end
$var reg 16 l data_out[15:0] $end
$var reg 16 m registro[15:0] $end
$upscope $end
$scope module reg7 $end
$var reg 1 n clk $end
$var reg 1 o rst $end
$var reg 1 p wr_en $end
$var reg 16 q data_in[15:0] $end
$var reg 16 r data_out[15:0] $end
$var reg 16 s registro[15:0] $end
$upscope $end
$scope module reg8 $end
$var reg 1 t clk $end
$var reg 1 u rst $end
$var reg 1 v wr_en $end
$var reg 16 w data_in[15:0] $end
$var reg 16 x data_out[15:0] $end
$var reg 16 y registro[15:0] $end
$upscope $end
$scope module reg9 $end
$var reg 1 z clk $end
$var reg 1 { rst $end
$var reg 1 | wr_en $end
$var reg 16 } data_in[15:0] $end
$var reg 16 !" data_out[15:0] $end
$var reg 16 "" registro[15:0] $end
$upscope $end
$upscope $end
$upscope $end
$enddefinitions $end
#0
0!
1"
0#
b0000 $
b0000 %
b0000000000000000 &
b0000000000000000 '
0(
0)
1*
0+
b0000 ,
b0000 -
b0000000000000000 .
b0000000000000000 /
00
01
02
03
04
05
06
07
08
09
b0000000000000000 :
b0000000000000000 ;
b0000000000000000 <
b0000000000000000 =
b0000000000000000 >
b0000000000000000 ?
b0000000000000000 @
b0000000000000000 A
b0000000000000000 B
b0000000000000000 C
0D
1E
0F
b0000000000000000 G
b0000000000000000 H
b0000000000000000 I
0J
1K
0L
b0000000000000000 M
b0000000000000000 N
b0000000000000000 O
0P
1Q
0R
b0000000000000000 S
b0000000000000000 T
b0000000000000000 U
0V
1W
0X
b0000000000000000 Y
b0000000000000000 Z
b0000000000000000 [
0\
1]
0^
b0000000000000000 _
b0000000000000000 `
b0000000000000000 a
0b
1c
0d
b0000000000000000 e
b0000000000000000 f
b0000000000000000 g
0h
1i
0j
b0000000000000000 k
b0000000000000000 l
b0000000000000000 m
0n
1o
0p
b0000000000000000 q
b0000000000000000 r
b0000000000000000 s
0t
1u
0v
b0000000000000000 w
b0000000000000000 x
b0000000000000000 y
0z
1{
0|
b0000000000000000 }
b0000000000000000 !"
b0000000000000000 ""
#10000000
1!
1)
1D
1J
1P
1V
1\
1b
1h
1n
1t
1z
#20000000
0!
0)
0D
0J
0P
0V
0\
0b
0h
0n
0t
0z
#30000000
1!
1)
1D
1J
1P
1V
1\
1b
1h
1n
1t
1z
#40000000
0!
0"
0)
0*
0D
0E
0J
0K
0P
0Q
0V
0W
0\
0]
0b
0c
0h
0i
0n
0o
0t
0u
0z
0{
#50000000
1!
1)
1D
1J
1P
1V
1\
1b
1h
1n
1t
1z
#60000000
0!
1#
b0001000000000000 &
0)
1+
b0001000000000000 .
10
0D
1F
b0001000000000000 G
0J
b0001000000000000 M
0P
b0001000000000000 S
0V
b0001000000000000 Y
0\
b0001000000000000 _
0b
b0001000000000000 e
0h
b0001000000000000 k
0n
b0001000000000000 q
0t
b0001000000000000 w
0z
b0001000000000000 }
#70000000
1!
b0001000000000000 '
1)
b0001000000000000 /
b0001000000000000 :
1D
b0001000000000000 H
b0001000000000000 I
1J
1P
1V
1\
1b
1h
1n
1t
1z
#80000000
0!
b0001 $
b0001000000000001 &
0)
b0001 ,
b0001000000000001 .
00
11
0D
0F
b0001000000000001 G
0J
1L
b0001000000000001 M
0P
b0001000000000001 S
0V
b0001000000000001 Y
0\
b0001000000000001 _
0b
b0001000000000001 e
0h
b0001000000000001 k
0n
b0001000000000001 q
0t
b0001000000000001 w
0z
b0001000000000001 }
#90000000
1!
1)
b0001000000000001 ;
1D
1J
b0001000000000001 N
b0001000000000001 O
1P
1V
1\
1b
1h
1n
1t
1z
#100000000
0!
b0010 $
b0001000000000010 &
0)
b0010 ,
b0001000000000010 .
01
12
0D
b0001000000000010 G
0J
0L
b0001000000000010 M
0P
1R
b0001000000000010 S
0V
b0001000000000010 Y
0\
b0001000000000010 _
0b
b0001000000000010 e
0h
b0001000000000010 k
0n
b0001000000000010 q
0t
b0001000000000010 w
0z
b0001000000000010 }
#110000000
1!
1)
b0001000000000010 <
1D
1J
1P
b0001000000000010 T
b0001000000000010 U
1V
1\
1b
1h
1n
1t
1z
#120000000
0!
b0011 $
b0001000000000011 &
0)
b0011 ,
b0001000000000011 .
02
13
0D
b0001000000000011 G
0J
b0001000000000011 M
0P
0R
b0001000000000011 S
0V
1X
b0001000000000011 Y
0\
b0001000000000011 _
0b
b0001000000000011 e
0h
b0001000000000011 k
0n
b0001000000000011 q
0t
b0001000000000011 w
0z
b0001000000000011 }
#130000000
1!
1)
b0001000000000011 =
1D
1J
1P
1V
b0001000000000011 Z
b0001000000000011 [
1\
1b
1h
1n
1t
1z
#140000000
0!
b0100 $
b0001000000000100 &
0)
b0100 ,
b0001000000000100 .
03
14
0D
b0001000000000100 G
0J
b0001000000000100 M
0P
b0001000000000100 S
0V
0X
b0001000000000100 Y
0\
1^
b0001000000000100 _
0b
b0001000000000100 e
0h
b0001000000000100 k
0n
b0001000000000100 q
0t
b0001000000000100 w
0z
b0001000000000100 }
#150000000
1!
1)
b0001000000000100 >
1D
1J
1P
1V
1\
b0001000000000100 `
b0001000000000100 a
1b
1h
1n
1t
1z
#160000000
0!
b0101 $
b0001000000000101 &
0)
b0101 ,
b0001000000000101 .
04
15
0D
b0001000000000101 G
0J
b0001000000000101 M
0P
b0001000000000101 S
0V
b0001000000000101 Y
0\
0^
b0001000000000101 _
0b
1d
b0001000000000101 e
0h
b0001000000000101 k
0n
b0001000000000101 q
0t
b0001000000000101 w
0z
b0001000000000101 }
#170000000
1!
1)
b0001000000000101 ?
1D
1J
1P
1V
1\
1b
b0001000000000101 f
b0001000000000101 g
1h
1n
1t
1z
#180000000
0!
b0110 $
b0001000000000110 &
0)
b0110 ,
b0001000000000110 .
05
16
0D
b0001000000000110 G
0J
b0001000000000110 M
0P
b0001000000000110 S
0V
b0001000000000110 Y
0\
b0001000000000110 _
0b
0d
b0001000000000110 e
0h
1j
b0001000000000110 k
0n
b0001000000000110 q
0t
b0001000000000110 w
0z
b0001000000000110 }
#190000000
1!
1)
b0001000000000110 @
1D
1J
1P
1V
1\
1b
1h
b0001000000000110 l
b0001000000000110 m
1n
1t
1z
#200000000
0!
b0111 $
b0001000000000111 &
0)
b0111 ,
b0001000000000111 .
06
17
0D
b0001000000000111 G
0J
b0001000000000111 M
0P
b0001000000000111 S
0V
b0001000000000111 Y
0\
b0001000000000111 _
0b
b0001000000000111 e
0h
0j
b0001000000000111 k
0n
1p
b0001000000000111 q
0t
b0001000000000111 w
0z
b0001000000000111 }
#210000000
1!
1)
b0001000000000111 A
1D
1J
1P
1V
1\
1b
1h
1n
b0001000000000111 r
b0001000000000111 s
1t
1z
#220000000
0!
b1000 $
b0001000000001000 &
0)
b1000 ,
b0001000000001000 .
07
18
0D
b0001000000001000 G
0J
b0001000000001000 M
0P
b0001000000001000 S
0V
b0001000000001000 Y
0\
b0001000000001000 _
0b
b0001000000001000 e
0h
b0001000000001000 k
0n
0p
b0001000000001000 q
0t
1v
b0001000000001000 w
0z
b0001000000001000 }
#230000000
1!
1)
b0001000000001000 B
1D
1J
1P
1V
1\
1b
1h
1n
1t
b0001000000001000 x
b0001000000001000 y
1z
#240000000
0!
b1001 $
b0001000000001001 &
0)
b1001 ,
b0001000000001001 .
08
19
0D
b0001000000001001 G
0J
b0001000000001001 M
0P
b0001000000001001 S
0V
b0001000000001001 Y
0\
b0001000000001001 _
0b
b0001000000001001 e
0h
b0001000000001001 k
0n
b0001000000001001 q
0t
0v
b0001000000001001 w
0z
1|
b0001000000001001 }
#250000000
1!
1)
b0001000000001001 C
1D
1J
1P
1V
1\
1b
1h
1n
1t
1z
b0001000000001001 !"
b0001000000001001 ""
#260000000
0!
0#
0)
0+
09
0D
0J
0P
0V
0\
0b
0h
0n
0t
0z
0|
#270000000
1!
1)
1D
1J
1P
1V
1\
1b
1h
1n
1t
1z
#280000000
0!
b0001 %
b0001000000000001 '
0)
b0001 -
b0001000000000001 /
0D
0J
0P
0V
0\
0b
0h
0n
0t
0z
#290000000
1!
1)
1D
1J
1P
1V
1\
1b
1h
1n
1t
1z
#300000000
0!
b0010 %
b0001000000000010 '
0)
b0010 -
b0001000000000010 /
0D
0J
0P
0V
0\
0b
0h
0n
0t
0z
#310000000
1!
1)
1D
1J
1P
1V
1\
1b
1h
1n
1t
1z
#320000000
0!
b0011 %
b0001000000000011 '
0)
b0011 -
b0001000000000011 /
0D
0J
0P
0V
0\
0b
0h
0n
0t
0z
#330000000
1!
1)
1D
1J
1P
1V
1\
1b
1h
1n
1t
1z
#340000000
0!
b0100 %
b0001000000000100 '
0)
b0100 -
b0001000000000100 /
0D
0J
0P
0V
0\
0b
0h
0n
0t
0z
#350000000
1!
1)
1D
1J
1P
1V
1\
1b
1h
1n
1t
1z
#360000000
0!
b0101 %
b0001000000000101 '
0)
b0101 -
b0001000000000101 /
0D
0J
0P
0V
0\
0b
0h
0n
0t
0z
#370000000
1!
1)
1D
1J
1P
1V
1\
1b
1h
1n
1t
1z
#380000000
0!
b0110 %
b0001000000000110 '
0)
b0110 -
b0001000000000110 /
0D
0J
0P
0V
0\
0b
0h
0n
0t
0z
#390000000
1!
1)
1D
1J
1P
1V
1\
1b
1h
1n
1t
1z
#400000000
0!
b0111 %
b0001000000000111 '
0)
b0111 -
b0001000000000111 /
0D
0J
0P
0V
0\
0b
0h
0n
0t
0z
#410000000
1!
1)
1D
1J
1P
1V
1\
1b
1h
1n
1t
1z
#420000000
0!
b1000 %
b0001000000001000 '
0)
b1000 -
b0001000000001000 /
0D
0J
0P
0V
0\
0b
0h
0n
0t
0z
#430000000
1!
1)
1D
1J
1P
1V
1\
1b
1h
1n
1t
1z
#440000000
0!
b1001 %
b0001000000001001 '
0)
b1001 -
b0001000000001001 /
0D
0J
0P
0V
0\
0b
0h
0n
0t
0z
#450000000
1!
1)
1D
1J
1P
1V
1\
1b
1h
1n
1t
1z
#460000000
0!
1"
b0000000000000000 '
0)
1*
b0000000000000000 /
b0000000000000000 :
b0000000000000000 ;
b0000000000000000 <
b0000000000000000 =
b0000000000000000 >
b0000000000000000 ?
b0000000000000000 @
b0000000000000000 A
b0000000000000000 B
b0000000000000000 C
0D
1E
b0000000000000000 H
b0000000000000000 I
0J
1K
b0000000000000000 N
b0000000000000000 O
0P
1Q
b0000000000000000 T
b0000000000000000 U
0V
1W
b0000000000000000 Z
b0000000000000000 [
0\
1]
b0000000000000000 `
b0000000000000000 a
0b
1c
b0000000000000000 f
b0000000000000000 g
0h
1i
b0000000000000000 l
b0000000000000000 m
0n
1o
b0000000000000000 r
b0000000000000000 s
0t
1u
b0000000000000000 x
b0000000000000000 y
0z
1{
b0000000000000000 !"
b0000000000000000 ""
#470000000
1!
1)
1D
1J
1P
1V
1\
1b
1h
1n
1t
1z
#480000000
0!
0"
0)
0*
0D
0E
0J
0K
0P
0Q
0V
0W
0\
0]
0b
0c
0h
0i
0n
0o
0t
0u
0z
0{
#490000000
1!
1)
1D
1J
1P
1V
1\
1b
1h
1n
1t
1z
#500000000
0!
1(
0)
0D
0J
0P
0V
0\
0b
0h
0n
0t
0z
